<?xml version="1.0" encoding="UTF-8" standalone="no"?>
<svg width="60px" height="49px" viewBox="0 0 60 49" version="1.1" xmlns="http://www.w3.org/2000/svg" xmlns:xlink="http://www.w3.org/1999/xlink">
    <!-- Generator: sketchtool 39 (31667) - http://www.bohemiancoding.com/sketch -->
    <title>B41FAE41-B9F1-4C5C-AE5C-F43FB9198D2B</title>
    <desc>Created with sketchtool.</desc>
    <defs></defs>
    <g id="Welcome" stroke="none" stroke-width="1" fill="none" fill-rule="evenodd" font-size="179.999989" font-family="Georgia" font-weight="normal">
        <g id="02.Isefac-Bachelor---Une-histoire" transform="translate(-255.000000, -830.000000)" fill="#E2E2EC">
            <g id="content" transform="translate(249.000000, 624.000000)">
                <text id="guillemet-debut">
                    <tspan x="0" y="341">“</tspan>
                </text>
            </g>
        </g>
    </g>
</svg>