<?xml version="1.0" encoding="UTF-8" standalone="no"?>
<svg width="78px" height="71px" viewBox="0 0 78 71" version="1.1" xmlns="http://www.w3.org/2000/svg" xmlns:xlink="http://www.w3.org/1999/xlink">
    <!-- Generator: sketchtool 39 (31667) - http://www.bohemiancoding.com/sketch -->
    <title>EA91ABAF-3A12-492D-993C-A90DEFAAF50D</title>
    <desc>Created with sketchtool.</desc>
    <defs></defs>
    <g id="Welcome" stroke="none" stroke-width="1" fill="none" fill-rule="evenodd">
        <g id="Inscription-JPO-ok" transform="translate(-681.000000, -623.000000)">
            <g id="content" transform="translate(521.000000, 630.000000)">
                <g id="envoyé">
                    <g id="ic-check" transform="translate(167.000000, 0.000000)">
                        <path d="M12.9965328,10.2690951 C10.1207015,17.2711193 6.33693232,23.9658487 4.36903876,31.2751676 C4.04889099,32.4642879 6.84826319,30.6187353 7.7450147,29.7747338 L12.9965328,23.3978904 C19.5148154,17.2630362 38.8969654,-1.17937781 33.2523884,5.76779386 C24.3874611,16.6784737 -10.721718,33.7899645 3.24371345,35.4013604 C19.444695,37.2707044 29.1756514,-1.75035356 43.0052078,6.89311917 C55.9933957,15.0107366 20.3447679,28.0278404 12.2463159,41.027987 C-18.0703247,89.6941732 86.9201512,-42.1992407 46.7562922,14.3952879 C39.4895332,24.6348119 27.6991062,31.1168031 20.4987016,41.4030954 C14.160743,50.4573219 47.6255115,7.66143723 44.1305331,18.1463723 C40.2976093,29.6451438 24.5621122,33.8250733 19.3733763,44.7790713 C15.2435204,53.4976559 46.2936937,17.3748635 40.7545572,25.2734326 C-13.6200467,102.809265 31.7035156,8.2392709 41.2439565,28.9102261 C55.0407707,58.8033236 -36.9294242,60.4696101 48.7461252,31.9110936 C57.4183532,29.0203509 18.6546326,50.5506813 27.7400527,49.5411902 C38.769445,48.3157021 45.9822499,25.4513804 55.4980771,31.1608767 C64.5457443,36.589477 25.898958,42.8443542 31.4911371,51.7918408 C37.0237077,60.6439538 47.0768174,35.8778779 57.3736193,34.1617442 C65.0501638,32.8823201 34.9907285,44.7883959 40.4937396,50.291407 C46.008103,55.8057704 52.4227108,40.2330114 58.1238361,34.9119611 C59.9382397,33.2185177 62.0225788,31.5665575 63.0002458,29.2853346 C63.6310067,27.8135591 60.4995229,31.2859129 59.2491615,32.286202" id="Path-6" stroke="#0C0C24" stroke-width="14"></path>
                        <g id="Group" transform="translate(18.000000, 25.000000)" stroke="#FFFFFF" fill="#FFFFFF">
                            <path d="M5.50025,14.9985 C5.37225,14.9985 5.24425,14.9495 5.14625,14.8525 L0.14625,9.8525 C-0.04875,9.6585 -0.04875,9.3405 0.14625,9.1455 C0.34025,8.9515 0.65825,8.9515 0.85225,9.1455 L5.49925,13.7915 L19.14525,0.1455 C19.34025,-0.0485 19.65825,-0.0485 19.85225,0.1455 C20.04725,0.3405 20.04725,0.6585 19.85225,0.8525 L5.85225,14.8525 C5.75425,14.9505 5.62625,14.9985 5.49825,14.9985 L5.50025,14.9985 L5.50025,14.9985 Z" id="Shape"></path>
                        </g>
                    </g>
                </g>
            </g>
        </g>
    </g>
</svg>