<?xml version="1.0" encoding="UTF-8" standalone="no"?>
<svg width="16px" height="19px" viewBox="0 0 16 19" version="1.1" xmlns="http://www.w3.org/2000/svg" xmlns:xlink="http://www.w3.org/1999/xlink">
    <!-- Generator: sketchtool 39 (31667) - http://www.bohemiancoding.com/sketch -->
    <title>BC757099-E227-47E9-B926-9EAFE2DC1F13</title>
    <desc>Created with sketchtool.</desc>
    <defs></defs>
    <g id="Charte" stroke="none" stroke-width="1" fill="none" fill-rule="evenodd">
        <g id="Style-Guide-Desktop" transform="translate(-183.000000, -6403.000000)">
            <g id="ICONS" transform="translate(139.000000, 6347.000000)">
                <g id="ic-cta-doc" transform="translate(40.000000, 53.000000)">
                    <rect id="Rectangle" x="0" y="0" width="24" height="24"></rect>
                    <path d="M6.53231223,5.56977392 L6.55375046,4.70132537 C5.28909692,4.36599362 4.45887447,4.36174862 4.42105263,4.36174862 C4.18863158,4.36174862 4,4.5503802 4,4.78280125 L4,17.4143802 C4,17.5263802 4.04463158,17.6333276 4.12294737,17.7124855 C4.20126316,17.7924855 4.30905263,17.8354328 4.42105263,17.8354328 C4.45726316,17.8354328 8.09263158,17.8724855 11.7204211,21.0977486 C11.8004211,21.1684855 11.8997895,21.2038539 12,21.2038539 C12.1002105,21.2038539 12.1995789,21.1684855 12.2795789,21.0977486 C14.1667368,19.4202749 16.0488421,18.6228012 17.296,18.2497486 C18.6509474,17.8430118 19.5705263,17.8354328 19.5789474,17.8354328 C19.8113684,17.8354328 20,17.6468012 20,17.4143802 L20,4.78280125 C20,4.5503802 19.8113684,4.36174862 19.5789474,4.36174862 C19.5376842,4.36174862 18.5532632,4.36680125 17.0905263,4.80132756 C15.8147368,5.17859072 13.9208421,5.96848546 12,7.59459072 C10.6445378,6.44711261 9.30207481,5.71603106 8.18122483,5.25250541 C9.06061583,5.81106962 10.2449851,6.75496918 11.582391,8.3280736 C11.582391,8.36229404 11.5812279,8.39610819 11.5789474,8.42951881 L11.5789474,19.8817486 C9.80547368,18.4863802 8.09178947,17.7815381 6.90947368,17.4320644 C5.99663158,17.1617486 5.26989474,17.0581697 4.84210526,17.0177486 L4.84210526,12.8809492 C4.84210526,12.2868297 4.84210526,11.0985907 4.84210526,11.0985907 L4.84210526,6.88806441 L4.84210526,5.23332756 C5.05516948,5.25581863 5.34258106,5.29542639 5.68938911,5.36521773 C5.94100232,5.41585214 6.22387987,5.48237419 6.53231223,5.56977392 Z M12.4210526,19.8825907 L12.4210526,8.3423802 C13.9291201,7.03663127 15.4241651,6.2851922 16.5839832,5.85685598 C16.8386168,5.76281642 17.0770923,5.68435058 17.296,5.61901178 C18.1061053,5.37648546 18.7612632,5.27543283 19.1578947,5.23416967 L19.1578947,6.88890651 L19.1578947,11.0994328 L19.1578947,17.0185907 C18.7309474,17.0581697 18.0042105,17.1617486 17.0905263,17.4312223 C15.9082105,17.7823802 14.1945263,18.4872223 12.4210526,19.8825907 Z" id="Combined-Shape" fill="#1F1F1F"></path>
                    <path d="M12.0226927,8.1732039 L12.0319078,20.7649993 C12.0319078,20.7649993 9.83593933,16.5027831 7.36842105,16.3027567 C7.36842105,16.3027566 7.52088297,5.70258681 7.54988159,4.27315023 C7.55292923,4.12292226 7.55461319,4.02748055 7.55461319,4 C9.45670289,4.15098801 12.0226927,8.1732039 12.0226927,8.1732039 Z" id="Path" stroke="#1F1F1F" stroke-linecap="round" stroke-linejoin="round"></path>
                </g>
            </g>
        </g>
    </g>
</svg>