<?xml version="1.0" encoding="UTF-8" standalone="no"?>
<svg width="18px" height="18px" viewBox="0 0 18 18" version="1.1" xmlns="http://www.w3.org/2000/svg" xmlns:xlink="http://www.w3.org/1999/xlink">
    <!-- Generator: sketchtool 39 (31667) - http://www.bohemiancoding.com/sketch -->
    <title>25E8FB6E-11D3-4D0D-8724-B1A4822BE1D9</title>
    <desc>Created with sketchtool.</desc>
    <defs></defs>
    <g id="Charte" stroke="none" stroke-width="1" fill="none" fill-rule="evenodd">
        <g id="Style-Guide-Desktop" transform="translate(-229.000000, -4492.000000)" stroke-width="2" stroke="">
            <g id="Buttons" transform="translate(0.000000, 4050.000000)">
                <g id="02" transform="translate(0.000000, 300.000000)">
                    <g id="sombre-loader" transform="translate(139.000000, 128.000000)">
                        <circle id="loader-btn-white" cx="99" cy="23" r="8"></circle>
                    </g>
                </g>
            </g>
        </g>
    </g>
</svg>